Tidy Time Series Forecasting: fable methods
…
---
### The model coefficient

[`tidy()`]() of fabletools is be used to extract model coefficients from a mable.

```r
fit_ETS %>%
  tidy()
```

```
## # A tibble: 45 × 4
##    Country .model      term      estimate
##    <chr>   <chr>       <chr>        <dbl>
##  1 Vietnam SES         alpha     1.00    
##  2 Vietnam SES         l[0]  10313.      
##  3 Vietnam Holt        alpha     1.00    
##  4 Vietnam Holt        beta      0.000100
##  5 Vietnam Holt        l[0]  13673.      
##  6 Vietnam Holt        b[0]    526.      
##  7 Vietnam damped Holt alpha     1.00    
##  8 Vietnam damped Holt beta      0.000110
##  9 Vietnam damped Holt phi       0.978   
## 10 Vietnam damped Holt l[0]  13257.      
## # … with 35 more rows
```
…
**Be wary though**, as information criteria (AIC, AICc, BIC) are only comparable between the same model class and only if those models share the same response (after transformations and differencing).

---
### Extracintg fitted and residual values

The fitted values and residuals from a model can obtained using fitted() and residuals() respectively. Additionally, the augment() function may be more convenient, which provides the original data along with both fitted values and their residuals.

```r
ASEAN_fit %>%
  augment()
```

```
## # A tsibble: 1,320 x 7 [1M]
## # Key:       Country, .model [10]
##    Country   .model    Month Arrivals .fitted  .resid  .innov
##    <chr>     <chr>     <mth>    <dbl>   <dbl>   <dbl>   <dbl>
##  1 Indonesia ets    2008 Jan    62683  56534.   6149.  0.109 
##  2 Indonesia ets    2008 Feb    47834  46417.   1417.  0.0305
##  3 Indonesia ets    2008 Mar    64688  62660.   2028.  0.0324
##  4 Indonesia ets    2008 Apr    58074  61045.  -2971. -0.0487
##  5 Indonesia ets    2008 May    57089  62280.  -5191. -0.0833
##  6 Indonesia ets    2008 Jun    70118  75791.  -5673. -0.0749
##  7 Indonesia ets    2008 Jul    73805  78691.  -4886. -0.0621
##  8 Indonesia ets    2008 Aug    58015  61910.  -3895. -0.0629
##  9 Indonesia ets    2008 Sep    63730  74518. -10788. -0.145 
## 10 Indonesia ets    2008 Oct    71206  67869.   3337.  0.0492
## # … with 1,310 more rows
```
…
